[
  {
    "_class": "com.tjx.ecomm.data.Product",
    "skuCode" : "0000000001",
    "name"  : "Product 1",
    "stock" : {"1":100,"2":600}
  },
  {
    "_class": "com.tjx.ecomm.data.Product",
    "skuCode" : "0000000002",
    "name"  : "Product 2",
    "stock" : {"1":400,"3":150}
  },
  {
    "_class": "com.tjx.ecomm.data.Product",
    "skuCode" : "0000000003",
    "name"  : "Product 3",
    "stock" : {"1":200}
  },
  {
    "_class": "com.tjx.ecomm.data.Product",
    "skuCode" : "0000000004",
    "name"  : "Product 4",
    "stock" : {"1":400}
  },
  {
    "_class": "com.tjx.ecomm.data.Product",
    "skuCode" : "0000000005",
    "name"  : "Product 5",
    "stock" : {"2":400}
  },
  {
    "_class": "com.tjx.ecomm.data.Product",
    "skuCode" : "0000000006",
    "name"  : "Product 6",
    "stock" : {"1":200}
  },
  {
    "_class": "com.tjx.ecomm.data.Product",
    "skuCode" : "0000000007",
    "name"  : "Product 7",
    "stock" : {"1":200,"3":400}
  },
  {
    "_class": "com.tjx.ecomm.data.Product",
    "skuCode" : "0000000008",
    "name"  : "Product 8",
    "stock" : {"3":400}
  },
  {
    "_class": "com.tjx.ecomm.data.Product",
    "skuCode" : "0000000009",
    "name"  : "Product 9",
    "stock" : {"1":200}
  },
  {
    "_class": "com.tjx.ecomm.data.Product",
    "skuCode" : "0000000010",
    "name"  : "Product 10",
    "stock" : {"2":100}
  },
  {
    "_class": "com.tjx.ecomm.data.Product",
    "skuCode" : "0000000011",
    "name"  : "Product 11",
    "stock" : {"2":100}
  },
  {
    "_class": "com.tjx.ecomm.data.Product",
    "skuCode" : "0000000012",
    "name"  : "Product 12",
    "stock" : {"1":50,"3":100}
  },
  {
    "_class": "com.tjx.ecomm.data.Product",
    "skuCode" : "0000000013",
    "name"  : "Product 13",
    "stock" : {"1":200}
  },
  {
    "_class": "com.tjx.ecomm.data.Product",
    "skuCode" : "0000000014",
    "name"  : "Product 14",
    "stock" : {"1":150}
  },
  {
    "_class": "com.tjx.ecomm.data.Product",
    "skuCode" : "0000000015",
    "name"  : "Product 15",
    "stock" : {"1":200,"3":400}
  },
  {
    "_class": "com.tjx.ecomm.data.Product",
    "skuCode" : "0000000016",
    "name"  : "Product 16",
    "stock" : {"1":400}
  },
  {
    "_class": "com.tjx.ecomm.data.Product",
    "skuCode" : "0000000017",
    "name"  : "Product 17",
    "stock" : {"1":400}
  },
  {
    "_class": "com.tjx.ecomm.data.Product",
    "skuCode" : "0000000018",
    "name"  : "Product 18",
    "stock" : {"1":400}
  },
  {
    "_class": "com.tjx.ecomm.data.Product",
    "skuCode" : "0000000019",
    "name"  : "Product 19",
    "stock" : {"1":100}
  },
  {
    "_class": "com.tjx.ecomm.data.Product",
    "skuCode" : "0000000020",
    "name"  : "Product 20",
    "stock" : {"3":400}
  },
  {
    "_class": "com.tjx.ecomm.data.Product",
    "skuCode" : "0000000021",
    "name"  : "Product 21",
    "stock" : {"1":100}
  },
  {
    "_class": "com.tjx.ecomm.data.Product",
    "skuCode" : "0000000022",
    "name"  : "Product 22",
    "stock" : {"1":400}
  },
  {
    "_class": "com.tjx.ecomm.data.Product",
    "skuCode" : "0000000023",
    "name"  : "Product 23",
    "stock" : {"1":400}
  },
  {
    "_class": "com.tjx.ecomm.data.Product",
    "skuCode" : "0000000024",
    "name"  : "Product 24",
    "stock" : {"1":800}
  },
  {
    "_class": "com.tjx.ecomm.data.Product",
    "skuCode" : "0000000025",
    "name"  : "Product 25",
    "stock" : {"1":100}
  },
  {
    "_class": "com.tjx.ecomm.data.Product",
    "skuCode" : "0000000026",
    "name"  : "Product 26",
    "stock" : {"1":400}
  },
  {
    "_class": "com.tjx.ecomm.data.Product",
    "skuCode" : "0000000027",
    "name"  : "Product 27",
    "stock" : {"1":400}
  },
  {
    "_class": "com.tjx.ecomm.data.Product",
    "skuCode" : "0000000028",
    "name"  : "Product 28",
    "stock" : {"1":400}
  },
  {
    "_class": "com.tjx.ecomm.data.Product",
    "skuCode" : "0000000029",
    "name"  : "Product 29",
    "stock" : {"1":150}
  },
  {
    "_class": "com.tjx.ecomm.data.Product",
    "skuCode" : "0000000030",
    "name"  : "Product 30",
    "stock" : {"1":400}
  },
  {
    "_class": "com.tjx.ecomm.data.Product",
    "skuCode" : "0000000031",
    "name"  : "Product 31",
    "stock" : {"1":400}
  },
  {
    "_class": "com.tjx.ecomm.data.Product",
    "skuCode" : "0000000032",
    "name"  : "Product 32",
    "stock" : {"2":200}
  },
  {
    "_class": "com.tjx.ecomm.data.Product",
    "skuCode" : "0000000033",
    "name"  : "Product 33",
    "stock" : {"3":450}
  }
]